{
    "poi" : {
        "category" : "player",
        "sounds" : [
            "poi1",
            "poi2",
            "poi3",
            "poi4",
            "poi5",
            "poi6"
        ]
    }
}